{
  "project" : {
    "id" : "bullscows-256376690-bRz",
    "name" : "bullscows-256376690-bRz",
    "folder" : "/"
  },
  "settings" : {
    "language" : "ru",
    "spellingCorrection" : false,
    "classificationAlgorithm" : "sts",
    "timezone" : "UTC",
    "shared" : false
  },
  "intents" : [ {
    "id" : 914530,
    "path" : "/Давай поиграем",
    "enabled" : true,
    "shared" : false,
    "phrases" : [ {
      "text" : "давай поиграем"
    }, {
      "text" : "хочу играть"
    }, {
      "text" : "играть"
    }, {
      "text" : "игра"
    } ],
    "patterns" : [ ],
    "priority" : 0
  }, {
    "id" : 914531,
    "path" : "/Несогласие",
    "enabled" : true,
    "shared" : false,
    "phrases" : [ {
      "text" : "не хочу"
    }, {
      "text" : "не буду"
    }, {
      "text" : "нет"
    }, {
      "text" : "не"
    }, {
      "text" : "не уверен"
    } ],
    "patterns" : [ ],
    "priority" : 0
  }, {
    "id" : 914529,
    "path" : "/Новый интент",
    "enabled" : true,
    "shared" : false,
    "priority" : 0
  }, {
    "id" : 914532,
    "path" : "/Согласие",
    "enabled" : true,
    "shared" : false,
    "phrases" : [ {
      "text" : "хочу"
    }, {
      "text" : "да"
    }, {
      "text" : "начнем"
    }, {
      "text" : "согласен"
    }, {
      "text" : "давай"
    }, {
      "text" : "ага"
    }, {
      "text" : "конечно"
    } ],
    "patterns" : [ ],
    "slots" : [ {
      "name" : "Number",
      "entity" : "duckling.number",
      "required" : true,
      "prompts" : [ "Какое число я загадал?" ]
    } ],
    "priority" : 0
  }, {
    "id" : 914533,
    "path" : "/Число",
    "enabled" : true,
    "shared" : false,
    "phrases" : [ {
      "text" : "@duckling.number"
    } ],
    "patterns" : [ ],
    "slots" : [ {
      "name" : "Number",
      "entity" : "duckling.number",
      "required" : true,
      "prompts" : [ ]
    } ],
    "priority" : 0
  } ],
  "entities" : [ ],
  "enabledSystemEntities" : [ "duckling.number", "duckling.time", "duckling.duration", "duckling.phone-number", "duckling.email", "duckling.url" ],
  "spellerDictionary" : [ ],
  "systemEntities" : [ {
    "name" : "mystem.geo",
    "enabled" : false
  }, {
    "name" : "mystem.persn",
    "enabled" : false
  }, {
    "name" : "mystem.obsc",
    "enabled" : false
  }, {
    "name" : "mystem.patrn",
    "enabled" : false
  }, {
    "name" : "mystem.famn",
    "enabled" : false
  }, {
    "name" : "pymorphy.romn",
    "enabled" : false
  }, {
    "name" : "pymorphy.latn",
    "enabled" : false
  }, {
    "name" : "pymorphy.numb",
    "enabled" : false
  }, {
    "name" : "pymorphy.intg",
    "enabled" : false
  }, {
    "name" : "pymorphy.abbr",
    "enabled" : false
  }, {
    "name" : "pymorphy.name",
    "enabled" : false
  }, {
    "name" : "pymorphy.surn",
    "enabled" : false
  }, {
    "name" : "pymorphy.patr",
    "enabled" : false
  }, {
    "name" : "pymorphy.geox",
    "enabled" : false
  }, {
    "name" : "pymorphy.orgn",
    "enabled" : false
  }, {
    "name" : "duckling.number",
    "version" : "v2",
    "enabled" : true
  }, {
    "name" : "duckling.ordinal",
    "version" : "v2",
    "enabled" : false
  }, {
    "name" : "duckling.amount-of-money",
    "version" : "v2",
    "enabled" : false
  }, {
    "name" : "duckling.distance",
    "version" : "v2",
    "enabled" : false
  }, {
    "name" : "duckling.time",
    "version" : "v2",
    "enabled" : true
  }, {
    "name" : "duckling.date",
    "version" : "v2",
    "enabled" : false
  }, {
    "name" : "duckling.time-of-day",
    "version" : "v2",
    "enabled" : false
  }, {
    "name" : "duckling.duration",
    "version" : "v2",
    "enabled" : true
  }, {
    "name" : "duckling.phone-number",
    "version" : "v2",
    "enabled" : true
  }, {
    "name" : "duckling.email",
    "version" : "v2",
    "enabled" : true
  }, {
    "name" : "duckling.url",
    "version" : "v2",
    "enabled" : true
  }, {
    "name" : "duckling.interval",
    "version" : "v2",
    "enabled" : false
  }, {
    "name" : "mlps-obscene.obscene",
    "enabled" : false
  }, {
    "name" : "zb.datetime",
    "enabled" : false
  }, {
    "name" : "zb.number",
    "enabled" : false
  } ]
}